<?xml version="1.0" encoding="UTF-8"?>
<svg width="201.01mm" height="84.148mm" version="1.1" viewBox="0 0 200 80" xmlns="http://www.w3.org/2000/svg">
    <text y="3" font-size="3" fill="#00000040">
        Please ignore how ugly this banner is
    </text>
    <g transform="translate(14.398 -9.295)">
        <g transform="rotate(-45, 160, 45) translate(-5 -5)">

            <path d="m148.75 32.055 18.216-2.9772c0.98302-0.19103 1.8506 0.06324 2.8609 0.7762l15.298 11.491c1.8201 1.3501 1.7025 3.2595 1.0558 4.8739l-7.7982 20.464c-0.70289 1.7043-1.4384 2.3526-2.8456 2.7498l-18.348 6.7874c-1.4481 0.71472-3.1327 0.30955-4.2395-0.92069l-14.837-17.117c-1.365-1.3034-1.1-2.7776-0.53653-4.11l7.4305-18.724c0.7635-2.0987 2.4579-3.1941 3.7458-3.2944z"
                  fill="#81d1ff"/>
            <path d="m146.94 35.03s14.826 11.067 15.113 13.291c0.28764 2.2236 0.17792 2.8424-0.30573 4.1116-0.48361 1.2691-7.6025 21.091-7.7372 21.627-0.13441 0.53568 0.15797 1.2493 0.59845 1.4172s1.274-0.04299 1.4939-0.61986c0.21983-0.57686 7.8038-20.809 7.9351-21.816 0.13149-1.0069 0.87933-2.3075 1.6276-2.9472 0.74824-0.63975 18.097-4.4666 18.669-4.6448 0.57238-0.17826 0.74825-0.63975 0.9241-1.1012 0.17586-0.46149-0.48527-1.3741-1.2117-1.1224-0.72646 0.25166-17.348 3.8269-17.348 3.8269s-1.3428 0.54529-2.29 0.05223c-0.94713-0.49305-14.915-12.158-14.915-12.158s-1.3879-1.1565-1.8338-1.2273c-0.44592-0.07084-0.71547 0.22282-0.80895 0.38539-0.0935 0.16257 0.0887 0.92563 0.0887 0.92563z"
                  fill="#90d7ff" stroke-width=".10946"/>
            <g fill="#3d3d3d" stroke="#0e232e" stroke-width=".079835">
                <ellipse transform="matrix(.48498 .87453 -.99888 .047342 0 0)" cx="47.471" cy="-134.42" rx="1.823"
                         ry="2.0281" color="#000000"/>
                <ellipse transform="matrix(.48498 .87453 -.99888 .047342 0 0)" cx="46.617" cy="-140.34" rx="1.823"
                         ry="2.0281" color="#000000"/>
                <ellipse transform="matrix(.48498 .87453 -.99888 .047342 0 0)" cx="46.089" cy="-145.93" rx="1.823"
                         ry="2.0281" color="#000000"/>
                <ellipse transform="matrix(.48498 .87453 -.99888 .047342 0 0)" cx="54.896" cy="-138.49" rx="1.823"
                         ry="2.0281" color="#000000"/>
                <ellipse transform="matrix(.48498 .87453 -.99888 .047342 0 0)" cx="54.043" cy="-144.41" rx="1.823"
                         ry="2.0281" color="#000000"/>
                <ellipse transform="matrix(.48498 .87453 -.99888 .047342 0 0)" cx="53.514" cy="-150" rx="1.823"
                         ry="2.0281"
                         color="#000000"/>
            </g>
            <path d="m165.96 50.425 19.75-6.1298c0.51281-0.15915 0.74822 0.0652 0.55133 0.58189l-8.2383 21.618c-0.1969 0.51668-0.75982 1.0891-1.2621 1.2834l-20.217 7.8206c-0.50233 0.19432-0.74475-0.06389-0.55132-0.58189l8.7042-23.309c0.19343-0.51799 0.74934-1.1243 1.2622-1.2834z"
                  color="#000000" fill="#a8a8a8" opacity=".30796" stroke-width=".095323"/>
            <path d="m161.38 47.438-14.514-13.835c-0.3848-0.3668-0.60186-0.44928-0.79876 0.0674l-8.2383 21.618c-0.1969 0.51668-0.26313 1.3969 0.0879 1.7979l14.991 17.127c0.35104 0.40106 0.61533 0.45422 0.79876-0.0674l6.9979-19.9c0.82896-2.1577 2.7184-4.8605 0.67542-6.8079z"
                  color="#000000" fill="#a8a8a8" opacity=".36549" stroke-width=".10946"/>

            <g fill="#3d3d3d" stroke="#0e232e">
                <g stroke-width=".095828">
                    <ellipse transform="rotate(20.861)" cx="154.34" cy="-10.555" rx="1.7872" ry="2.9806"
                             color="#000000"/>
                    <ellipse transform="rotate(20.861)" cx="162.56" cy="-6.0021" rx="1.7872" ry="2.9806"
                             color="#000000"/>
                    <ellipse transform="rotate(20.861)" cx="162.42" cy="3.7042" rx="1.7872" ry="2.9806"
                             color="#000000"/>
                    <ellipse transform="rotate(20.861)" cx="154" cy="-.032445" rx="1.7872" ry="2.9806" color="#000000"/>
                </g>
                <ellipse transform="matrix(-.93597 .35209 .3561 -.93445 0 0)" cx="-238.81" cy="-150.73" rx="2.2333"
                         ry="2.7906" color="#000000" stroke-width=".10365"/>
                <ellipse transform="matrix(-.93597 .35209 .3561 -.93445 0 0)" cx="-248.12" cy="-162" rx="2.2333"
                         ry="2.7906"
                         color="#000000" stroke-width=".10365"/>
            </g>
        </g>
        <g stroke-width=".11954">
            <path d="m4.3023 70.399c-0.37696 0.15259-0.80772-0.030016-0.96026-0.40687l-16.49-40.739c-0.15259-0.37696 0.02997-0.80783 0.40682-0.96037l28.052-11.355c0.37696-0.15259 0.80772 0.03002 0.9603 0.40698l16.49 40.739c0.15254 0.37685-0.03013 0.80776-0.40687 0.96026z"
                  fill="url(#a)"/>
            <path d="m15.334 18.217 16.147 39.89-27.203 11.011-16.147-39.89 27.203-11.011z"
                  fill="#66c2e2"/>
            <path d="m15.31 16.937c0.37685-0.15254 0.80772 0.03002 0.9603 0.40698l16.49 40.739c0.15254 0.37685-0.03002 0.80772-0.40687 0.96026l-28.052 11.355c-0.37696 0.15259-0.80772-0.030016-0.96026-0.40687l-16.49-40.739c-0.15259-0.37696 0.02997-0.80783 0.40682-0.96037l28.052-11.355m-0.44852-1.1081-28.052 11.355c-0.9895 0.40053-1.4669 1.5275-1.0664 2.517l16.49 40.739c0.40058 0.98961 1.5273 1.4669 2.5168 1.0664l28.052-11.355c0.9895-0.40053 1.467-1.5272 1.0664-2.5168l-16.49-40.739c-0.40042-0.98954-1.5273-1.4671-2.5168-1.0666z"
                  fill="#414042"/>
        </g>
        <g transform="matrix(.11081 -.044852 .044852 .11081 -14.982 27.91)">
            <path d="m141.69 282.67c-4.04 0-7.983-1.043-11.405-3.016-7.408-4.271-11.831-11.858-11.831-20.297s4.423-16.025 11.831-20.297c3.422-1.974 7.366-3.017 11.405-3.017 4.04 0 7.983 1.043 11.405 3.017 7.408 4.271 11.831 11.857 11.831 20.297 0 8.438-4.423 16.024-11.831 20.297-3.422 1.973-7.365 3.016-11.405 3.016z"
                  fill="#cceffe"/>
            <path d="m141.69 238.54c3.528 0 7.056 0.895 10.157 2.682 14.105 8.133 14.105 28.129 0 36.262-3.102 1.789-6.629 2.683-10.157 2.683s-7.056-0.894-10.156-2.683c-14.106-8.133-14.106-28.129 0-36.262 3.1-1.787 6.628-2.682 10.156-2.682m0-5c-4.477 0-8.853 1.159-12.654 3.352-8.191 4.723-13.082 13.119-13.082 22.461s4.891 17.739 13.082 22.463c3.801 2.191 8.177 3.351 12.654 3.351s8.853-1.158 12.654-3.351c8.191-4.724 13.082-13.121 13.082-22.463s-4.891-17.738-13.083-22.461c-3.8-2.193-8.176-3.352-12.653-3.352z"
                  fill="black"/>
            <path d="m125.45 213.07c-0.837 0-1.655-0.345-2.244-0.947-0.587-0.601-0.913-1.422-0.894-2.255 0.336-15.218 11.317-29.33 21.48-37.463 12.28-9.822 19.612-20.433 19.612-28.382 0-13.365-12.381-15.361-19.762-15.361-12.532 0-21.212 6.397-26.538 19.559-0.478 1.185-1.61 1.951-2.884 1.951-0.539 0-1.072-0.143-1.54-0.413l-27.794-16.021c-1.353-0.78-1.926-2.459-1.333-3.904 10.004-24.394 32.925-38.957 61.313-38.957 14.997 0 28.437 4.539 39.946 13.491 11.518 8.959 17.356 21.477 17.356 37.204 0 21.688-14.052 35.03-25.344 45.75-8.304 7.885-15.476 14.692-15.753 22.755-0.057 1.677-1.409 2.992-3.081 2.992z"
                  fill="#cceffe"
            />
            <path d="m144.87 93.381c14.676 0 27.401 4.4 38.411 12.964 11.009 8.564 16.393 20.308 16.393 35.231 0 36.127-40.369 47.265-41.095 68.418-0.013 0.322-0.261 0.578-0.583 0.578h-32.544c-0.351 0-0.646-0.295-0.638-0.646 0.314-14.206 10.905-27.854 20.543-35.566 9.789-7.829 20.55-19.572 20.55-30.334 0-11.501-8.316-17.861-22.263-17.861-13.489 0-23.188 7.116-28.854 21.121-0.097 0.241-0.327 0.389-0.566 0.389a0.5722 0.5722 0 0 1-0.29-0.078l-27.796-16.02c-0.271-0.156-0.387-0.5-0.268-0.789 9.899-24.142 32.761-37.407 59-37.407m0-5c-14.039 0-27.268 3.596-38.259 10.398-11.415 7.066-20.187 17.478-25.367 30.109-1.066 2.602-0.034 5.618 2.399 7.02l27.795 16.021c0.846 0.488 1.81 0.746 2.786 0.746 2.297 0 4.339-1.379 5.202-3.515 4.898-12.108 12.82-17.995 24.218-17.995 7.875 0 17.262 2.231 17.262 12.861 0 7.197-6.981 17.077-18.674 26.429-10.605 8.486-22.063 23.283-22.418 39.361-0.032 1.504 0.553 2.981 1.607 4.06 1.056 1.079 2.524 1.697 4.03 1.697h32.544c3.024 0 5.476-2.374 5.58-5.405 0.241-7.041 7.069-13.523 14.976-21.03 11.639-11.05 26.122-24.801 26.122-47.562 0-16.54-6.165-29.721-18.323-39.178-11.957-9.301-25.914-14.017-41.48-14.017z"
                  fill="black"/>
        </g>
    </g>
    <g transform="translate(14.398 -9.295)">
        <path d="m105.67 81.411c0-5.9942 0.20131-26.994-4.2202-35.931-1.1518-2.328-3.3177-4.7216-4.1482-7.2284-0.19228-0.58035 0.25133-3.488 0.43788-4.0566 0.78602-2.3955 0.59366-3.603 0.71116-5.8769 0.18911-3.6598-0.57511-8.3783-2.4065-11.553-3.2794-5.6845-8.8683-7.0825-10.878-7.3352-2.2164-0.27874-5.7231-0.14186-7.8223 0.56215-1.7639 0.59157-4.5799 2.0877-6.1871 4.2092-3.278 4.3271-4.8463 7.9932-4.6648 15.618 0.07463 3.1333 1.147 4.8922 1.3996 8.4708 0.17216 2.4387-3.3517 5.2238-4.5162 7.5669-2.8839 5.803-6.012 30.317-6.6788 36.669z"
              fill="#adafcf"/>
        <path d="m84.184 9.43c3.2415 0.9735 5.0439 3.4684 6.4813 5.3966 0.92136 1.236 2.0805 2.9076 2.7937 4.3426 1.0704 2.1539 1.3614 6.2535 0.65652 8.8538-0.94091 3.471-3.1714 8.3572-3.5619 11.426-0.51262 4.0282 2.8806 7.2709 4.4559 10.934 1.4668 3.4106 1.4667 7.9139 1.4667 11.496 0 0.37085-0.25436 2.33 0 2.5859 0.50499 0.50807 2.6302-0.11242 3.3524-0.11242 5.0298 0 5.6153 2.3081 5.6153-3.935 0-6.5067-3.5198-14.856-5.741-18.003-0.78338-1.1099-1.8825-2.4688-2.193-3.8226-0.36313-1.5832 0.16168-3.4092 0.62857-4.975 0.30213-1.0133 0.37021-2.2172 0.39112-3.401 0.01885-1.0678 0.11876-1.6155 0-3.2323-0.23631-3.2171-0.98166-8.5952-2.9194-11.032-1.0872-1.3673-1.9973-2.4259-3.2965-3.5696-4.0882-2.4718-4.2962-2.4504-8.1296-2.9513z"
              fill="#9f9cbb"/>
        <path d="m81.907 9.3738c-2.2972 0-3.08 1.2094-4.425 2.4545-4.373 4.0486-5.4876 8.0225-6.0646 12.283-0.2543 1.8763-0.51316 3.8286-0.13828 5.6942 0.34437 1.7138 0.71881 3.1092 1.1754 4.6209 0.61147 2.0246 1.8502 3.4232 1.5817 4.9266-0.2169 1.2143-2.3046 3.3037-3.2734 5.209-0.55448 1.0905-1.388 2.4611-1.9293 3.7633-0.89079 2.143-1.7857 3.4961-2.1525 6.6234-0.11553 1.2439-4.0007 28.378-4.3407 29.343 1.5166-0.60388 7.3075-0.4619 8.436-0.42185 0.9393-7.8491 2.1863-21.512 2.6126-27.32 0.12083-1.9042 0.5087-3.5572 0.97182-5.2879 0.88707-3.315 3.6133-9.642 3.7117-10.792 0.2255-2.6346-0.9922-4.8953-0.9882-8.1053 0.0026-2.3823-0.50759-5.0931 0.02284-7.2389 0.29521-1.1464 0.21603-2.4217 0.46926-3.5682 0.6983-3.1616 0.71021-5.9343 2.0695-9.0276 0.35044-0.79743 0.85899-2.1222 2.2611-3.1554z"
              fill="#c3c6e0"/>
        <path d="m71.353 53.934c1.7034-1.4711 1.7358-3.5539 2.5412-5.433 1.2415-2.8969 3.1007-5.7966 5.803-7.418 0.3267-0.19602 0.55784-0.56896 0.84781-0.71394 0.20095-0.10048 0.28464 0.94172 0.96636 1.7371 0.40086 0.46768 0.9033 1.1648 1.5771 0.94022 0.10382-0.03461 0.70922-0.55663 0.75856-0.49084 0.56948 0.75931 0.97916 1.9217 2.0698 2.058 1.0102 0.12627 1.7677-0.54917 2.5651-0.94788 0.03242-0.01622 1.5894 1.6243 1.7705 1.6605 1.1294 0.22588 2.3317-0.76543 3.0419-1.4757 2.2096-1.0474 1.4209 0.09345 3.4038-0.75949 1.0729 0.35763 2.1395 1.4703 2.6489 2.3618 0.36001 0.63002 0.73207 1.4003 0.96543 2.1004 1.8297 5.4891 2.2757 11.37 2.2757 17.313-0.47087 1.5146 0.0322 4.3407-1.2048 5.5777-0.21925 0.21924-1.172-0.36119-1.3386-0.49084-1.4234-1.1071-2.4289-4.0912-4.6276-3.3584-2.42 1.1183-1.7148 3.4785-1.8425 5.2771-0.07437 0.14874-1.4663 1.3054-1.6136 1.2283-0.71532-0.37469-0.08316-2.0479-0.57281-2.7008-0.15434-0.20579-0.18711-0.54408-0.35697-0.71394-0.10517-0.10517-0.29748 0-0.44621 0-1.2406 0-1.4737 3.4602-3.0613 2.5781-0.58729-0.32627-0.54142-3.5309-1.2985-3.4183-0.90108 0.13403-1.6312 3.8513-2.4411 3.5968-1.5671-0.49252 0.13895-6.1023-1.3224-6.1023-0.43155 0-0.78854-0.05926-1.1155 0.26773-0.65927 0.65927-1.8774 6.6504-2.9428 0.80226-0.43754-2.4019-2.5957-4.2098-3.7036-6.4255-0.72162-1.4432-0.8978-3.1036-1.7849-4.7299-0.26806-0.49144-2.04-1.8421-1.5618-2.3203z"
              fill="#91daa0"/>
        <path d="m77.24 48.937c0.98394-1.9318 2.2228-3.5001 3.9315-4.9294 0.75069-0.6279 1.6481-1.2996 2.5682-1.5388 0.27835 0.41753 0.2133 1.1933 0.94148 1.643 0.53856 0.33258 0.9973 0.67834 1.8982 0.40794-0.33172 0.58302-0.56948 0.85345-0.69415 0.97812-1.0953 1.0953-2.0497 2.143-2.6819 3.5654-1.1706 2.6339-2.6298 5.0411-4.0017 7.6429-0.58396 1.1075-0.70588 2.0312-1.1728 3.0848-1.0762-1.071-3.7443-3.2764-3.5033-3.6833 1.4506-2.793 1.7145-5.0952 2.7145-7.1706z"
              fill="#afe4b7"/>
        <g stroke-width=".26458px">
            <path d="m73.201 21.14c-0.72056-0.69774-1.9981-1.6304-1.3883-2.2402 0.78339-0.78338 1.9572 1.0587 2.3506 1.4514 1.1116-1.0655 1.8741-1.8964 2.3506-1.4198 0.6077 0.52118-0.41484 1.4517-1.3567 2.3349 0.38602 0.38602 2.0621 1.4854 1.4987 2.114-0.9826 1.0965-1.828-0.73905-2.3822-1.2621-0.79132 0.84333-1.8459 1.9761-2.3822 1.3567-0.57328-0.66214 0.57406-1.4479 1.3094-2.3349z"
                  fill="#010000" stroke="#000"/>
            <path d="m89.393 21.118c-0.72056-0.69774-1.9981-1.6304-1.3883-2.2402 0.78339-0.78338 1.9572 1.0587 2.3506 1.4514 1.1116-1.0655 1.8741-1.8964 2.3506-1.4198 0.6077 0.52118-0.41484 1.4517-1.3567 2.3349 0.38602 0.38602 2.0621 1.4854 1.4987 2.114-0.9826 1.0965-1.828-0.73905-2.3822-1.2621-0.79132 0.84333-1.8459 1.9761-2.3822 1.3567-0.57328-0.66214 0.57406-1.4479 1.3094-2.3349z"
                  fill="#010000" stroke="#000"/>
            <path d="m81.022 46.126c-0.33916-0.94394-1.0747-2.3443-0.25849-2.6228 1.0485-0.35779 1.29 1.8131 1.47 2.339 1.4675-0.46628 2.5182-0.87592 2.7358-0.23812 0.31569 0.73571-1.0123 1.1201-2.2471 1.4976 0.1763 0.51666 1.196 2.2423 0.41325 2.5582-1.3654 0.551-1.3149-1.4692-1.5818-2.183-1.0821 0.4081-2.528 0.95994-2.7363 0.16758-0.22266-0.84705 1.1536-1.0465 2.2046-1.5184z"
                  fill="#4d614f" stroke="#4c634b"/>
            <path d="m94.998 53.466c-0.33916-0.94394-1.0747-2.3443-0.25849-2.6228 1.0485-0.35779 1.29 1.8131 1.47 2.339 1.4675-0.46628 2.5182-0.87592 2.7358-0.23812 0.3157 0.73571-1.0123 1.1201-2.2471 1.4976 0.1763 0.51666 1.196 2.2423 0.41326 2.5582-1.3654 0.551-1.315-1.4692-1.5818-2.183-1.0821 0.4081-2.528 0.95994-2.7363 0.16758-0.22266-0.84705 1.1536-1.0465 2.2046-1.5184z"
                  fill="#4d614f" stroke="#4c634b"/>
            <path d="m71.15 26.977c1.2448 0.03036 2.1593 0.85228 3.3445 1.2621 3.8363 1.3264 10.542 1.2903 14.798 0.03155 1.2841-0.3798 3.421-1.9682 3.9125-1.0412 0.86111 1.6128-1.3791 1.5877-2.2086 2.0824-4.9813 2.0559-13.975 1.7008-18.553-0.09465-0.83262-0.35684-2.3431-0.66929-1.9562-1.83 0.10839-0.32516 0.31967-0.41018 0.66259-0.41018z"
                  fill="#010000" stroke="#000"/>
        </g>
        <path d="m76.337 49.561c1.0748 0.62867 1.4776 1.7904 2.3168 2.7224 2.7161 3.0165 8.6025 6.2284 12.936 7.1854 1.3076 0.28872 3.9462-0.06792 3.928 0.98114-0.02645 1.8281-1.975 0.72254-2.9404 0.7543-5.3543-0.61012-13.054-5.2713-16.192-9.0567-0.55614-0.71506-1.7271-1.7192-0.82698-2.5479 0.25214-0.23216 0.47818-0.20438 0.77833-0.0385z"
              fill="#4d614f"/>
        <path d="m87.746 30.606c-0.25883 0.64709-0.99489 3.1668 0.09466 3.4392 0.52354 0.13089 1.1302 0.22651 1.5776-0.22086 0.07661-0.07662 0.22146-1.3877 0.59949-1.0097 0.14762 0.14763 0.06185 1.0325 0.09465 1.2621 0.14605 1.0223-0.12807 1.353 0.31552 2.2402 0.34232 0.68464 2.5899 0.81251 3.029-0.15776 0.93587-2.0679-0.76117-2.5479-0.88346-5.3323-0.01069-0.24332 0.1675-1.5358 0.22086-1.7669z"
              fill="#93daa0"/>
        <ellipse cx="70.368" cy="63.139" rx="8.3219" ry="8.5004" fill="#7b7c95"/>
        <ellipse cx="68.873" cy="62.18" rx="8.3219" ry="8.5004" fill="#adafce"/>
    </g>
    <g transform="translate(-6.1856 -42.487)">
        <path d="m89.29 113.58c0-6.7288 0.68091-11.268-4.3127-21.3-1.3009-2.6134-3.747-5.3003-4.685-8.1143-0.21716-0.65148 0.28385-3.9155 0.49455-4.5538 0.88774-2.6891 0.67047-4.0445 0.80318-6.5972 0.21359-4.1083-0.64953-9.4051-2.718-12.969-3.7038-6.3812-10.016-7.9505-12.286-8.2342-2.5032-0.3129-6.4637-0.15925-8.8346 0.63104-1.9922 0.66407-5.1726 2.3436-6.9878 4.7251-3.7022 4.8574-5.4735 8.9729-5.2684 17.532 0.08428 3.5173 1.2954 5.4918 1.5808 9.5089 0.19444 2.7376-3.7855 5.864-5.1006 8.4942-3.2571 6.5142-4.4214 13.946-5.1745 21.077z"
              fill="#1b70bc"/>
        <path d="m65.482 51.808c3.661 1.0928 5.6967 3.8935 7.3201 6.058 1.0406 1.3875 2.3498 3.2639 3.1552 4.8748 1.2089 2.4179 1.5376 7.0199 0.74148 9.9389-1.0627 3.8964-3.5819 9.3814-4.0229 12.826-0.57896 4.5218 3.2534 8.162 5.0326 12.274 1.6567 3.8286 1.6565 8.8838 1.6565 12.905 0 0.4163-0.28728 2.6155 0 2.9028 0.57034 0.57034 2.9706-0.1262 3.7863-0.1262 5.6808 0 6.342 2.591 6.342-4.4173 0-7.3042-3.9753-16.676-6.484-20.209-0.88475-1.246-2.1261-2.7713-2.4768-4.2911-0.41012-1.7772 0.18261-3.827 0.70992-5.5847 0.34123-1.1374 0.41812-2.4889 0.44173-3.8178 0.02129-1.1986 0.13413-1.8135 1e-6 -3.6285-0.26689-3.6114-1.1087-9.6486-3.2972-12.384-1.2279-1.5349-2.2558-2.7232-3.7231-4.0071-4.6173-2.7747-4.8522-2.7507-9.1817-3.313z"
              fill="#1662a5"/>
        <path d="m62.911 51.745c-2.5945 0-3.4786 1.3576-4.9976 2.7554-4.9389 4.5448-6.1977 9.0057-6.8494 13.788-0.28721 2.1062-0.57957 4.2978-0.15618 6.392 0.38894 1.9238 0.81182 3.4902 1.3275 5.1872 0.6906 2.2727 2.0896 3.8427 1.7863 5.5303-0.24497 1.3631-2.6029 3.7085-3.697 5.8474-0.62624 1.2242-1.5677 2.7627-2.179 4.2245-1.0061 2.4056-2.0168 3.9246-2.4311 7.4351-0.13048 1.3964-0.43633 2.7039-0.82035 3.7862 1.7128-0.67789 3.4152-0.86914 4.6897-0.82418 2.4815 0.11155 2.3572 0.26987 3.3541 0.68965 0.12081-0.66741 0.31657-1.2926 0.35249-1.8552 0.13647-2.1376 0.57453-3.9931 1.0976-5.936 1.0019-3.7212 4.0809-10.824 4.192-12.114 0.25468-2.9575-1.1206-5.4953-1.1161-9.0987 0.0034-2.6742-0.57329-5.7173 0.02581-8.1261 0.33341-1.2869 0.24399-2.7185 0.52999-4.0055 0.78867-3.549 0.80212-6.6616 2.3374-10.134 0.39579-0.89517 0.97015-2.3823 2.5538-3.5421z"
              fill="#3884c3"/>
        <g>
            <ellipse cx="75.358" cy="65.833" rx="2.114" ry="2.0982" fill-rule="evenodd" stroke-width=".26458"/>
            <ellipse cx="52.925" cy="65.849" rx="1.9562" ry="2.0193" fill-rule="evenodd" stroke-width=".26458"/>
            <path d="m51.473 73.169c1.3638 0.6143 2.3878 0.88314 3.6285 1.2305 2.3072 0.64601 4.6553 0.91309 7.0361 1.2305 2.7157 0.3621 5.6214 0.01088 8.2666-0.53638 1.6191-0.33497 4.947-1.1076 6.0422-1.9089 0.94628-0.6923 3.4886-0.12843 1.1832 1.6249-1.5764 1.1989-3.918 1.5628-5.7425 2.0193-2.7123 0.63819-7.1367 1.1605-9.9074 0.88346-1.4738-0.14738-2.9547-0.43166-4.4173-0.6626-0.63262-0.09989-1.2828-0.23502-1.927-0.39199-0.64416-0.15697-1.2823-0.33578-1.8908-0.52302-0.69598-0.21415-2.1777-0.69676-3.0986-1.3176-1.0503-0.70811-0.19633-2.1092 0.82682-1.6483z"/>
        </g>
        <g transform="translate(20.584 33.192)">
            <ellipse cx="47.896" cy="77.618" rx="14.482" ry="13.631" fill="#fffffa"/>
            <ellipse cx="46.539" cy="78.565" rx="14.482" ry="13.631" fill="#2d2420"/>
        </g>
    </g>
    <g transform="translate(14.398 -9.295)">
        <path d="m145.03 79.5c0-6.7288 0.68091-11.268-4.3127-21.3-1.3009-2.6134-3.747-5.3003-4.685-8.1143-0.21716-0.65148 0.28385-3.9155 0.49455-4.5538 0.88774-2.6891 0.67048-4.0445 0.80319-6.5972 0.21359-4.1083-0.64953-9.4051-2.718-12.969-3.7038-6.3812-10.016-7.9505-12.286-8.2342-2.5032-0.3129-6.4637-0.15925-8.8346 0.63104-1.9922 0.66407-5.1726 2.3436-6.9878 4.7251-3.7022 4.8574-5.4735 8.9729-5.2684 17.532 0.0843 3.5173 1.2954 5.4918 1.5808 9.5089 0.19445 2.7376-3.7855 5.864-5.1006 8.4942-3.2571 6.5142-4.4214 13.946-5.1745 21.077z"
              fill="#00879b"/>
        <path d="m121.22 17.732c3.661 1.0928 5.6967 3.8935 7.3201 6.058 1.0406 1.3875 2.3498 3.2639 3.1552 4.8748 1.2089 2.4179 1.5376 7.0199 0.74148 9.9389-1.0627 3.8964-3.5819 9.3814-4.0229 12.826-0.57895 4.5218 3.2534 8.162 5.0326 12.274 1.6567 3.8286 1.6565 8.8838 1.6565 12.905 0 0.4163-0.28728 2.6155 0 2.9028 0.57033 0.57034 2.9706-0.1262 3.7862-0.1262 5.6808 0 6.342 2.591 6.342-4.4173 0-7.3042-3.9753-16.676-6.484-20.209-0.88475-1.246-2.1261-2.7713-2.4768-4.2911-0.41013-1.7772 0.1826-3.827 0.70992-5.5847 0.34123-1.1374 0.41812-2.4889 0.44173-3.8178 0.0213-1.1986 0.13413-1.8135 0-3.6285-0.26689-3.6114-1.1087-9.6486-3.2972-12.384-1.2279-1.5349-2.2558-2.7232-3.7231-4.0071-4.6173-2.7747-4.8522-2.7507-9.1817-3.313z"
              fill="#027789"/>
        <path d="m118.65 17.669c-2.5945 0-3.4786 1.3576-4.9976 2.7554-4.9389 4.5448-6.1977 9.0057-6.8494 13.788-0.28722 2.1062-0.57957 4.2978-0.15618 6.392 0.38894 1.9238 0.81182 3.4902 1.3275 5.1872 0.69059 2.2727 2.0896 3.8427 1.7863 5.5303-0.24497 1.3631-2.6029 3.7085-3.697 5.8474-0.62624 1.2242-1.5677 2.7627-2.179 4.2245-1.0061 2.4056-2.0168 3.9246-2.4311 7.4351-0.13048 1.3964-0.43633 2.7039-0.82035 3.7862 1.7128-0.67789 3.4152-0.86914 4.6897-0.82418 2.4815 0.11155 2.3572 0.26987 3.3542 0.68965 0.12081-0.66741 0.31657-1.2926 0.35248-1.8552 0.13647-2.1376 0.57453-3.9931 1.0976-5.9359 1.0019-3.7212 4.0809-10.824 4.192-12.114 0.25468-2.9575-1.1206-5.4953-1.1161-9.0987 3e-3 -2.6742-0.57328-5.7173 0.0258-8.1261 0.33341-1.2869 0.24399-2.7185 0.52999-4.0055 0.78867-3.549 0.80212-6.6616 2.3374-10.134 0.39579-0.89517 0.97015-2.3823 2.5538-3.5421z"
              fill="#43a7b7"/>
        <g>
            <ellipse cx="131.1" cy="31.757" rx="2.114" ry="2.0982" fill-rule="evenodd" stroke-width=".26458"/>
            <ellipse cx="108.67" cy="31.772" rx="1.9562" ry="2.0193" fill-rule="evenodd" stroke-width=".26458"/>
            <path d="m107.21 39.092c1.3638 0.6143 2.3878 0.88314 3.6285 1.2305 2.3072 0.64601 4.6553 0.91309 7.0361 1.2305 2.7157 0.3621 5.6214 0.01088 8.2666-0.53638 1.6191-0.33497 4.947-1.1076 6.0422-1.9089 0.94628-0.6923 3.4886-0.12843 1.1832 1.6249-1.5764 1.1989-3.918 1.5628-5.7425 2.0193-2.7123 0.63819-7.1367 1.1605-9.9074 0.88346-1.4738-0.14738-2.9547-0.43166-4.4173-0.6626-0.63262-0.09989-1.2828-0.23502-1.927-0.39199-0.64416-0.15697-1.2823-0.33578-1.8908-0.52302-0.69598-0.21415-2.1777-0.69676-3.0986-1.3176-1.0504-0.70811-0.19633-2.1092 0.82682-1.6483z"/>
        </g>
    </g>
    <g transform="translate(14.398 -9.295)">
        <path d="m95.033 40.858c0.79583-0.21605 2.202-0.54628 2.9829-0.54628 1.755 0 3.0015 1.9563 2.1148 3.7297-0.24665 0.4933-1.3388 1.5876-1.8741 1.8295-1.9699 0.8903-5.1283 0.49319-5.3099 0.35697-0.66183-0.49637-0.67658-1.8492-0.71394-2.6327-0.12621-2.6462 2.1376-2.5573 2.8003-2.7372z"
              fill="#fadb17" stroke="#fedb1a" stroke-width=".26458px"/>
        <path d="m98.747 40.561c1.2412-0.96728-0.18936-3.832-1.6956-3.0789-1.1955 0.59775-0.85147 2.1828-0.22311 2.8111"
              fill="#fffffe"/>
        <path d="m95.222 40.605c-2.185 1.3902-2.3903-3.3816-0.53546-2.4542 0.84004 0.42002 1.3157 0.8695 1.9187 1.4725 0.14854 0.14854 0.20144 0.64766 0.22311 0.66932"
              fill="#fffffe"/>
        <g transform="matrix(-1 0 0 1 226.69 -15.352)">
            <ellipse cx="129.03" cy="57.713" rx=".23476" ry=".23301" fill-rule="evenodd" stroke-width=".029382"/>
            <ellipse cx="127.06" cy="57.304" rx=".21724" ry=".22425" fill-rule="evenodd" stroke-width=".029382"/>
            <path d="m127.03 58.699c0.38788 0.24538 0.72847 0.42007 1.8559 0.35202 0.19752-0.01192 0.52253-0.0301 0.32494 0.19201-0.14539 0.16343-0.42322 0.19393-0.74477 0.20339-0.58994 0.04362-0.80218-0.09105-1.5371-0.43633-0.0626-0.02686-0.12418-0.05569-0.18257-0.08476-0.3606-0.20161-0.0293-0.42428 0.2836-0.22633z"/>
            <path d="m131.66 56.21c0.81119 1.1181 0.78302 2.1006 0.33129 3.2183-0.45956 1.0866-1.22 1.6757-2.1061 2.1298-0.32818-0.01306-0.64642-0.10433-0.95445-0.21298 0.82029-0.27064 1.7204-0.73442 2.0746-1.3883 0.66405-1.27 0.80133-2.8712-0.12621-3.8651-0.46166-0.49996 0.47012-0.16335 0.78092 0.11832z"/>
            <path d="m133.42 56.563c0.81119 1.1181 0.78302 2.1006 0.33129 3.2183-0.45956 1.0866-1.22 1.6757-2.1061 2.1298-0.32818-0.01306-0.64642-0.10433-0.95445-0.21298 0.82029-0.27064 1.7204-0.73442 2.0746-1.3883 0.66405-1.27 0.80133-2.8712-0.12621-3.8651-0.46166-0.49996 0.47012-0.16335 0.78092 0.11832z"/>
        </g>
        <g transform="matrix(-1 0 0 1 226.76 15.084)">
            <path d="m95.033 40.858c0.79583-0.21605 2.202-0.54628 2.9829-0.54628 1.755 0 3.0015 1.9563 2.1148 3.7297-0.24665 0.4933-1.3388 1.5876-1.8741 1.8295-1.9699 0.8903-5.1283 0.49319-5.3099 0.35697-0.66183-0.49637-0.67658-1.8492-0.71394-2.6327-0.12621-2.6462 2.1376-2.5573 2.8003-2.7372z"
                  fill="#fadb17" stroke="#fedb1a" stroke-width=".26458px"/>
            <path d="m98.747 40.561c1.2412-0.96728-0.18936-3.832-1.6956-3.0789-1.1955 0.59775-0.85147 2.1828-0.22311 2.8111"
                  fill="#fffffe"/>
            <path d="m95.222 40.605c-2.185 1.3902-2.3903-3.3816-0.53546-2.4542 0.84004 0.42002 1.3157 0.8695 1.9187 1.4725 0.14854 0.14854 0.20144 0.64766 0.22311 0.66932"
                  fill="#fffffe"/>
            <g transform="matrix(-1 0 0 1 226.69 -15.352)">
                <ellipse cx="129.03" cy="57.713" rx=".23476" ry=".23301" fill-rule="evenodd" stroke-width=".029382"/>
                <ellipse cx="127.06" cy="57.304" rx=".21724" ry=".22425" fill-rule="evenodd" stroke-width=".029382"/>
                <path d="m127.03 58.699c0.38788 0.24538 0.72847 0.42007 1.8559 0.35202 0.19752-0.01192 0.52253-0.0301 0.32494 0.19201-0.14539 0.16343-0.42322 0.19393-0.74477 0.20339-0.58994 0.04362-0.80218-0.09105-1.5371-0.43633-0.0626-0.02686-0.12418-0.05569-0.18257-0.08476-0.3606-0.20161-0.0293-0.42428 0.2836-0.22633z"/>
                <path d="m131.66 56.21c0.81119 1.1181 0.78302 2.1006 0.33129 3.2183-0.45956 1.0866-1.22 1.6757-2.1061 2.1298-0.32818-0.01306-0.64642-0.10433-0.95445-0.21298 0.82029-0.27064 1.7204-0.73442 2.0746-1.3883 0.66405-1.27 0.80133-2.8712-0.12621-3.8651-0.46166-0.49996 0.47012-0.16335 0.78092 0.11832z"/>
                <path d="m133.42 56.563c0.81119 1.1181 0.78302 2.1006 0.33129 3.2183-0.45956 1.0866-1.22 1.6757-2.1061 2.1298-0.32818-0.01306-0.64642-0.10433-0.95445-0.21298 0.82029-0.27064 1.7204-0.73442 2.0746-1.3883 0.66405-1.27 0.80133-2.8712-0.12621-3.8651-0.46166-0.49996 0.47012-0.16335 0.78092 0.11832z"/>
            </g>
        </g>
        <g transform="matrix(-1 0 0 1 238.25 -12.114)">
            <path d="m95.033 40.858c0.79583-0.21605 2.202-0.54628 2.9829-0.54628 1.755 0 3.0015 1.9563 2.1148 3.7297-0.24665 0.4933-1.3388 1.5876-1.8741 1.8295-1.9699 0.8903-5.1283 0.49319-5.3099 0.35697-0.66183-0.49637-0.67658-1.8492-0.71394-2.6327-0.12621-2.6462 2.1376-2.5573 2.8003-2.7372z"
                  fill="#fadb17" stroke="#fedb1a" stroke-width=".26458px"/>
            <path d="m98.747 40.561c1.2412-0.96728-0.18936-3.832-1.6956-3.0789-1.1955 0.59775-0.85147 2.1828-0.22311 2.8111"
                  fill="#fffffe"/>
            <path d="m95.222 40.605c-2.185 1.3902-2.3903-3.3816-0.53546-2.4542 0.84004 0.42002 1.3157 0.8695 1.9187 1.4725 0.14854 0.14854 0.20144 0.64766 0.22311 0.66932"
                  fill="#fffffe"/>
            <g transform="matrix(-1 0 0 1 226.69 -15.352)">
                <ellipse cx="129.03" cy="57.713" rx=".23476" ry=".23301" fill-rule="evenodd" stroke-width=".029382"/>
                <ellipse cx="127.06" cy="57.304" rx=".21724" ry=".22425" fill-rule="evenodd" stroke-width=".029382"/>
                <path d="m127.03 58.699c0.38788 0.24538 0.72847 0.42007 1.8559 0.35202 0.19752-0.01192 0.52253-0.0301 0.32494 0.19201-0.14539 0.16343-0.42322 0.19393-0.74477 0.20339-0.58994 0.04362-0.80218-0.09105-1.5371-0.43633-0.0626-0.02686-0.12418-0.05569-0.18257-0.08476-0.3606-0.20161-0.0293-0.42428 0.2836-0.22633z"/>
                <path d="m131.66 56.21c0.81119 1.1181 0.78302 2.1006 0.33129 3.2183-0.45956 1.0866-1.22 1.6757-2.1061 2.1298-0.32818-0.01306-0.64642-0.10433-0.95445-0.21298 0.82029-0.27064 1.7204-0.73442 2.0746-1.3883 0.66405-1.27 0.80133-2.8712-0.12621-3.8651-0.46166-0.49996 0.47012-0.16335 0.78092 0.11832z"/>
                <path d="m133.42 56.563c0.81119 1.1181 0.78302 2.1006 0.33129 3.2183-0.45956 1.0866-1.22 1.6757-2.1061 2.1298-0.32818-0.01306-0.64642-0.10433-0.95445-0.21298 0.82029-0.27064 1.7204-0.73442 2.0746-1.3883 0.66405-1.27 0.80133-2.8712-0.12621-3.8651-0.46166-0.49996 0.47012-0.16335 0.78092 0.11832z"/>
            </g>
        </g>
        <path d="m106.09 73.234c-0.87949-3.0944-0.10036-6.0131 1.1359-8.8977 0.36243-0.84567 1.206-1.4867 1.3883-2.398 0.32814-1.6407-0.63104-2.6821-0.63104-4.1018 0-0.90441 0.66963-2.1625 1.7038-2.3349 8.5057-1.4176 4.5283 10.624 9.9074 11.485 1.6654 0.26665 2.7755 0.54401 4.3857 0.94656 0.67037 0.16759 2.3775 0.37493 3.1237 0.12621 1.2114-0.4038 3.1739-6.8221 5.8371-3.4392 0.64853 0.82377 0.23507 2.633 0.69415 3.0921 0.20277 0.20277 0.80134 1.1609 0.94656 1.4514-0.33957 2.7159 0.42845 4.2811-0.0947 5.7425-0.30819 0.77047-1.0562 1.4814-1.4198 2.2086-0.33597 0.67195 0.527 1.3866 0.18932 1.8931-4.0937 6.5403-13.009 1.9102-17.764 1.2936-1.4802-0.21146-9.1586 2.4725-9.748 1.8831-0.91397-0.91397-0.43142-7.9796 0.34548-8.9507z"
              fill="#f3e9e1"/>
        <ellipse cx="112.34" cy="57.835" rx=".70992" ry=".69415" fill="#0d0000"/>
        <path d="m108.03 57.109c0.9946 0.37395 1.8959 1.1103 1.199 2.2718-0.43406 0.26692-0.51084 0.56295-0.85191 0.82035-0.1259 0.1259-1.4101-0.56468-1.6092-0.63104-0.2855-0.09517-0.89272-0.2171-1.0097-0.56794-0.22626-0.85727 0.9599-1.1772 2.2718-1.8931z"
              fill="#e09831"/>
        <path d="m108.03 57.109c-0.61425-0.30401-1.7338-3.2203-0.798-3.4074 0.63349-0.1267 1.3512 0.81363 1.8183 0.58008 0.57534-0.28767 0.16516-1.3671 0.98167-1.6733 0.1168-0.0438 0.35148-0.08735 0.47968-0.04462 0.35702 0.11901 0.63732 0.98314 0.92589 1.2717 0.0502 0.05016 0.14047 0.0084 0.2008 0.04462 0.0699 0.04191 0.2021 0.10286 0.30119 0.07809 0.50453-0.12613 0.58272-1.5445 1.2606-1.1378 0.47083 0.2825 0.20008 1.388 0.35697 1.5841 0.49588 0.61986 1.0585-0.12965 1.5952-0.0223 0.47072 0.09414 0.51604 0.8292 0.43506 1.1936-0.10384 0.4673-0.62019 1.4011-0.95936 1.7402-0.0315 0.03149-0.11063-0.19896-0.12271-0.22311-0.11253-0.22506-0.25609-0.4735-0.41275-0.66932-0.34542-0.43178-0.96091-0.68274-1.4502-0.89243-0.25709-0.11018-0.52076-0.10184-0.79203-0.12271-0.45355-0.03489-0.96138-0.10967-1.4167-0.04462-0.14393 0.02056-0.26818 0.10766-0.40159 0.15617-0.66241 0.24087-1.2897 0.47466-1.7626 1.0263-0.15014 0.17517-0.12346 0.40036-0.23945 0.56282z"
              fill="#ce421d"/>
        <path d="m108.69 59.938c0.19781 0.48324 0.30413 0.96058 0.36813 1.4725 0.0276 0.2211 0.0913 0.66964 0.0112 0.87012-0.22116 0.5529-0.45663 1.4614-1.1936 1.4614-0.11731 0-0.41673-0.01513-0.50199-0.1004-0.44333-0.44333-0.35918-1.5429-0.2008-2.0972 0.0325-0.11362 0.14766-0.21724 0.2008-0.3235 0.24072-0.48144 0.71965-1.2829 1.3163-1.2829z"
              fill="#ce421d"/>
    </g>


    <rect x="35" y="60" width="120" height="40" ry="20" rx="20" fill="#fff" stroke="#fff"
          stroke-width=".265"/>
</svg>
